 
  _____    _____    _____      _____                      _   _    __ 
 |_   _|  / ____|  / ____|    / ____|                    | | (_)  / _|
   | |   | |      | (___     | |        __ _   _ __    __| |  _  | |_ 
   | |   | |       \___ \    | |       / _` | | '__|  / _` | | | |  _|
  _| |_  | |____   ____) |   | |____  | (_| | | |    | (_| | | | | |  
 |_____|  \_____| |_____/     \_____|  \__,_| |_|     \__,_| |_| |_|  
 
 